…
```{r}
# Subset to nrc
nrc_lex <- get_sentiments("nrc")

# Print nrc_lex
nrc_lex
```

> nrc_lex
# A tibble: 13,901 x 2
          word sentiment
         <chr>     <chr>
 1      abacus     trust
 2     abandon      fear
 3     abandon  negative
 4     abandon   sadness
 5   abandoned     anger
 6   abandoned      fear
 7   abandoned  negative
 8   abandoned   sadness
 9 abandonment     anger
10 abandonment      fear
# ... with 13,891 more rows
…
```{r}
# Get Bing lexicon
bing <- get_sentiments("bing")

# Join text to lexicon
ag_bing_words <- inner_join(ag_tidy, bing, by = c("term" = "word"))

# Examine
ag_bing_words
```

> ag_bing_words
# A tibble: 483 x 4
   document       term count sentiment
      <chr>      <chr> <dbl>     <chr>
 1        1  abundance     1  positive
 2        1    acclaim     1  positive
 3        1       ache     2  negative
 4        1     aching     3  negative
 5        1 affliction     1  negative
 6        1    affront     1  negative
 7        1     afraid     2  negative
 8        1     aghast     1  negative
 9        1      agony     5  negative
10        1      amply     1  positive
# ... with 473 more rows
…
